{
  "name": "calculator",
  "version": "0.0.0",
  "dependencies": {
    "express": {
      "version": "4.13.4",
      "from": "express@latest",
      "resolved": "https://registry.npmjs.org/express/-/express-4.13.4.tgz",
      "dependencies": {
        "accepts": {
          "version": "1.2.13",
          "from": "accepts@>=1.2.12 <1.3.0",
          "resolved": "https://registry.npmjs.org/accepts/-/accepts-1.2.13.tgz",
          "dependencies": {
            "mime-types": {
              "version": "2.1.10",
              "from": "mime-types@>=2.1.10 <2.2.0",
              "resolved": "https://registry.npmjs.org/mime-types/-/mime-types-2.1.10.tgz",
              "dependencies": {
                "mime-db": {
                  "version": "1.22.0",
                  "from": "mime-db@>=1.22.0 <1.23.0",
                  "resolved": "https://registry.npmjs.org/mime-db/-/mime-db-1.22.0.tgz"
                }
              }
            },
            "negotiator": {
              "version": "0.5.3",
              "from": "negotiator@0.5.3",
              "resolved": "https://registry.npmjs.org/negotiator/-/negotiator-0.5.3.tgz"
            }
          }
        },
        "array-flatten": {
          "version": "1.1.1",
          "from": "array-flatten@1.1.1",
          "resolved": "https://registry.npmjs.org/array-flatten/-/array-flatten-1.1.1.tgz"
        },
        "content-disposition": {
          "version": "0.5.1",
          "from": "content-disposition@0.5.1",
          "resolved": "https://registry.npmjs.org/content-disposition/-/content-disposition-0.5.1.tgz"
        },
        "content-type": {
          "version": "1.0.1",
          "from": "content-type@>=1.0.1 <1.1.0",
          "resolved": "https://registry.npmjs.org/content-type/-/content-type-1.0.1.tgz"
        },
        "cookie": {
          "version": "0.1.5",
          "from": "cookie@0.1.5",
          "resolved": "https://registry.npmjs.org/cookie/-/cookie-0.1.5.tgz"
        },
        "cookie-signature": {
          "version": "1.0.6",
          "from": "cookie-signature@1.0.6",
          "resolved": "https://registry.npmjs.org/cookie-signature/-/cookie-signature-1.0.6.tgz"
        },
        "debug": {
          "version": "2.2.0",
          "from": "debug@>=2.2.0 <2.3.0",
          "resolved": "https://registry.npmjs.org/debug/-/debug-2.2.0.tgz",
          "dependencies": {
            "ms": {
              "version": "0.7.1",
              "from": "ms@0.7.1",
              "resolved": "https://registry.npmjs.org/ms/-/ms-0.7.1.tgz"
            }
          }
        },
        "depd": {
          "version": "1.1.0",
          "from": "depd@>=1.1.0 <1.2.0",
          "resolved": "https://registry.npmjs.org/depd/-/depd-1.1.0.tgz"
        },
        "escape-html": {
          "version": "1.0.3",
          "from": "escape-html@>=1.0.3 <1.1.0",
          "resolved": "https://registry.npmjs.org/escape-html/-/escape-html-1.0.3.tgz"
        },
        "etag": {
          "version": "1.7.0",
          "from": "etag@>=1.7.0 <1.8.0",
          "resolved": "https://registry.npmjs.org/etag/-/etag-1.7.0.tgz"
        },
        "finalhandler": {
          "version": "0.4.1",
          "from": "finalhandler@0.4.1",
          "resolved": "https://registry.npmjs.org/finalhandler/-/finalhandler-0.4.1.tgz",
          "dependencies": {
            "unpipe": {
              "version": "1.0.0",
              "from": "unpipe@>=1.0.0 <1.1.0",
              "resolved": "https://registry.npmjs.org/unpipe/-/unpipe-1.0.0.tgz"
            }
          }
        },
        "fresh": {
          "version": "0.3.0",
          "from": "fresh@0.3.0",
          "resolved": "https://registry.npmjs.org/fresh/-/fresh-0.3.0.tgz"
        },
        "merge-descriptors": {
          "version": "1.0.1",
          "from": "merge-descriptors@1.0.1",
          "resolved": "https://registry.npmjs.org/merge-descriptors/-/merge-descriptors-1.0.1.tgz"
        },
        "methods": {
          "version": "1.1.2",
          "from": "methods@>=1.1.2 <1.2.0",
          "resolved": "https://registry.npmjs.org/methods/-/methods-1.1.2.tgz"
        },
        "on-finished": {
          "version": "2.3.0",
          "from": "on-finished@>=2.3.0 <2.4.0",
          "resolved": "https://registry.npmjs.org/on-finished/-/on-finished-2.3.0.tgz",
          "dependencies": {
            "ee-first": {
              "version": "1.1.1",
              "from": "ee-first@1.1.1",
              "resolved": "https://registry.npmjs.org/ee-first/-/ee-first-1.1.1.tgz"
            }
          }
        },
        "parseurl": {
          "version": "1.3.1",
          "from": "parseurl@>=1.3.1 <1.4.0",
          "resolved": "https://registry.npmjs.org/parseurl/-/parseurl-1.3.1.tgz"
        },
        "path-to-regexp": {
          "version": "0.1.7",
          "from": "path-to-regexp@0.1.7",
          "resolved": "https://registry.npmjs.org/path-to-regexp/-/path-to-regexp-0.1.7.tgz"
        },
        "proxy-addr": {
          "version": "1.0.10",
          "from": "proxy-addr@>=1.0.10 <1.1.0",
          "resolved": "https://registry.npmjs.org/proxy-addr/-/proxy-addr-1.0.10.tgz",
          "dependencies": {
            "forwarded": {
              "version": "0.1.0",
              "from": "forwarded@>=0.1.0 <0.2.0",
              "resolved": "https://registry.npmjs.org/forwarded/-/forwarded-0.1.0.tgz"
            },
            "ipaddr.js": {
              "version": "1.0.5",
              "from": "ipaddr.js@1.0.5",
              "resolved": "https://registry.npmjs.org/ipaddr.js/-/ipaddr.js-1.0.5.tgz"
            }
          }
        },
        "qs": {
          "version": "4.0.0",
          "from": "qs@4.0.0",
          "resolved": "https://registry.npmjs.org/qs/-/qs-4.0.0.tgz"
        },
        "range-parser": {
          "version": "1.0.3",
          "from": "range-parser@>=1.0.3 <1.1.0",
          "resolved": "https://registry.npmjs.org/range-parser/-/range-parser-1.0.3.tgz"
        },
        "send": {
          "version": "0.13.1",
          "from": "send@0.13.1",
          "resolved": "https://registry.npmjs.org/send/-/send-0.13.1.tgz",
          "dependencies": {
            "destroy": {
              "version": "1.0.4",
              "from": "destroy@>=1.0.4 <1.1.0",
              "resolved": "https://registry.npmjs.org/destroy/-/destroy-1.0.4.tgz"
            },
            "http-errors": {
              "version": "1.3.1",
              "from": "http-errors@>=1.3.1 <1.4.0",
              "resolved": "https://registry.npmjs.org/http-errors/-/http-errors-1.3.1.tgz",
              "dependencies": {
                "inherits": {
                  "version": "2.0.1",
                  "from": "inherits@>=2.0.1 <2.1.0",
                  "resolved": "https://registry.npmjs.org/inherits/-/inherits-2.0.1.tgz"
                }
              }
            },
            "mime": {
              "version": "1.3.4",
              "from": "mime@1.3.4",
              "resolved": "https://registry.npmjs.org/mime/-/mime-1.3.4.tgz"
            },
            "ms": {
              "version": "0.7.1",
              "from": "ms@0.7.1",
              "resolved": "https://registry.npmjs.org/ms/-/ms-0.7.1.tgz"
            },
            "statuses": {
              "version": "1.2.1",
              "from": "statuses@>=1.2.1 <1.3.0",
              "resolved": "https://registry.npmjs.org/statuses/-/statuses-1.2.1.tgz"
            }
          }
        },
        "serve-static": {
          "version": "1.10.2",
          "from": "serve-static@>=1.10.2 <1.11.0",
          "resolved": "https://registry.npmjs.org/serve-static/-/serve-static-1.10.2.tgz"
        },
        "type-is": {
          "version": "1.6.12",
          "from": "type-is@>=1.6.6 <1.7.0",
          "resolved": "https://registry.npmjs.org/type-is/-/type-is-1.6.12.tgz",
          "dependencies": {
            "media-typer": {
              "version": "0.3.0",
              "from": "media-typer@0.3.0",
              "resolved": "https://registry.npmjs.org/media-typer/-/media-typer-0.3.0.tgz"
            },
            "mime-types": {
              "version": "2.1.10",
              "from": "mime-types@>=2.1.10 <2.2.0",
              "resolved": "https://registry.npmjs.org/mime-types/-/mime-types-2.1.10.tgz",
              "dependencies": {
                "mime-db": {
                  "version": "1.22.0",
                  "from": "mime-db@>=1.22.0 <1.23.0",
                  "resolved": "https://registry.npmjs.org/mime-db/-/mime-db-1.22.0.tgz"
                }
              }
            }
          }
        },
        "utils-merge": {
          "version": "1.0.0",
          "from": "utils-merge@1.0.0",
          "resolved": "https://registry.npmjs.org/utils-merge/-/utils-merge-1.0.0.tgz"
        },
        "vary": {
          "version": "1.0.1",
          "from": "vary@>=1.0.1 <1.1.0",
          "resolved": "https://registry.npmjs.org/vary/-/vary-1.0.1.tgz"
        }
      }
    },
    "nodemon": {
      "version": "1.9.1",
      "from": "nodemon@latest",
      "resolved": "https://registry.npmjs.org/nodemon/-/nodemon-1.9.1.tgz",
      "dependencies": {
        "chokidar": {
          "version": "1.4.3",
          "from": "chokidar@>=1.2.0 <2.0.0",
          "resolved": "https://registry.npmjs.org/chokidar/-/chokidar-1.4.3.tgz",
          "dependencies": {
            "anymatch": {
              "version": "1.3.0",
              "from": "anymatch@>=1.3.0 <2.0.0",
              "resolved": "https://registry.npmjs.org/anymatch/-/anymatch-1.3.0.tgz",
              "dependencies": {
                "arrify": {
                  "version": "1.0.1",
                  "from": "arrify@>=1.0.0 <2.0.0",
                  "resolved": "https://registry.npmjs.org/arrify/-/arrify-1.0.1.tgz"
                },
                "micromatch": {
                  "version": "2.3.7",
                  "from": "micromatch@>=2.1.5 <3.0.0",
                  "resolved": "https://registry.npmjs.org/micromatch/-/micromatch-2.3.7.tgz",
                  "dependencies": {
                    "arr-diff": {
                      "version": "2.0.0",
                      "from": "arr-diff@>=2.0.0 <3.0.0",
                      "resolved": "https://registry.npmjs.org/arr-diff/-/arr-diff-2.0.0.tgz",
                      "dependencies": {
                        "arr-flatten": {
                          "version": "1.0.1",
                          "from": "arr-flatten@>=1.0.1 <2.0.0",
                          "resolved": "https://registry.npmjs.org/arr-flatten/-/arr-flatten-1.0.1.tgz"
                        }
                      }
                    },
                    "array-unique": {
                      "version": "0.2.1",
                      "from": "array-unique@>=0.2.1 <0.3.0",
                      "resolved": "https://registry.npmjs.org/array-unique/-/array-unique-0.2.1.tgz"
                    },
                    "braces": {
                      "version": "1.8.3",
                      "from": "braces@>=1.8.2 <2.0.0",
                      "resolved": "https://registry.npmjs.org/braces/-/braces-1.8.3.tgz",
                      "dependencies": {
                        "expand-range": {
                          "version": "1.8.1",
                          "from": "expand-range@>=1.8.1 <2.0.0",
                          "resolved": "https://registry.npmjs.org/expand-range/-/expand-range-1.8.1.tgz",
                          "dependencies": {
                            "fill-range": {
                              "version": "2.2.3",
                              "from": "fill-range@>=2.1.0 <3.0.0",
                              "resolved": "https://registry.npmjs.org/fill-range/-/fill-range-2.2.3.tgz",
                              "dependencies": {
                                "is-number": {
                                  "version": "2.1.0",
                                  "from": "is-number@>=2.1.0 <3.0.0",
                                  "resolved": "https://registry.npmjs.org/is-number/-/is-number-2.1.0.tgz"
                                },
                                "isobject": {
                                  "version": "2.0.0",
                                  "from": "isobject@>=2.0.0 <3.0.0",
                                  "resolved": "https://registry.npmjs.org/isobject/-/isobject-2.0.0.tgz",
                                  "dependencies": {
                                    "isarray": {
                                      "version": "0.0.1",
                                      "from": "isarray@0.0.1",
                                      "resolved": "https://registry.npmjs.org/isarray/-/isarray-0.0.1.tgz"
                                    }
                                  }
                                },
                                "randomatic": {
                                  "version": "1.1.5",
                                  "from": "randomatic@>=1.1.3 <2.0.0",
                                  "resolved": "https://registry.npmjs.org/randomatic/-/randomatic-1.1.5.tgz"
                                },
                                "repeat-string": {
                                  "version": "1.5.4",
                                  "from": "repeat-string@>=1.5.2 <2.0.0",
                                  "resolved": "https://registry.npmjs.org/repeat-string/-/repeat-string-1.5.4.tgz"
                                }
                              }
                            }
                          }
                        },
                        "preserve": {
                          "version": "0.2.0",
                          "from": "preserve@>=0.2.0 <0.3.0",
                          "resolved": "https://registry.npmjs.org/preserve/-/preserve-0.2.0.tgz"
                        },
                        "repeat-element": {
                          "version": "1.1.2",
                          "from": "repeat-element@>=1.1.2 <2.0.0",
                          "resolved": "https://registry.npmjs.org/repeat-element/-/repeat-element-1.1.2.tgz"
                        }
                      }
                    },
                    "expand-brackets": {
                      "version": "0.1.4",
                      "from": "expand-brackets@>=0.1.4 <0.2.0",
                      "resolved": "https://registry.npmjs.org/expand-brackets/-/expand-brackets-0.1.4.tgz"
                    },
                    "extglob": {
                      "version": "0.3.2",
                      "from": "extglob@>=0.3.1 <0.4.0",
                      "resolved": "https://registry.npmjs.org/extglob/-/extglob-0.3.2.tgz"
                    },
                    "filename-regex": {
                      "version": "2.0.0",
                      "from": "filename-regex@>=2.0.0 <3.0.0",
                      "resolved": "https://registry.npmjs.org/filename-regex/-/filename-regex-2.0.0.tgz"
                    },
                    "is-extglob": {
                      "version": "1.0.0",
                      "from": "is-extglob@>=1.0.0 <2.0.0",
                      "resolved": "https://registry.npmjs.org/is-extglob/-/is-extglob-1.0.0.tgz"
                    },
                    "kind-of": {
                      "version": "3.0.2",
                      "from": "kind-of@>=3.0.2 <4.0.0",
                      "resolved": "https://registry.npmjs.org/kind-of/-/kind-of-3.0.2.tgz",
                      "dependencies": {
                        "is-buffer": {
                          "version": "1.1.3",
                          "from": "is-buffer@>=1.0.2 <2.0.0",
                          "resolved": "https://registry.npmjs.org/is-buffer/-/is-buffer-1.1.3.tgz"
                        }
                      }
                    },
                    "normalize-path": {
                      "version": "2.0.1",
                      "from": "normalize-path@>=2.0.1 <3.0.0",
                      "resolved": "https://registry.npmjs.org/normalize-path/-/normalize-path-2.0.1.tgz"
                    },
                    "object.omit": {
                      "version": "2.0.0",
                      "from": "object.omit@>=2.0.0 <3.0.0",
                      "resolved": "https://registry.npmjs.org/object.omit/-/object.omit-2.0.0.tgz",
                      "dependencies": {
                        "for-own": {
                          "version": "0.1.3",
                          "from": "for-own@>=0.1.3 <0.2.0",
                          "resolved": "https://registry.npmjs.org/for-own/-/for-own-0.1.3.tgz",
                          "dependencies": {
                            "for-in": {
                              "version": "0.1.4",
                              "from": "for-in@>=0.1.4 <0.2.0",
                              "resolved": "https://registry.npmjs.org/for-in/-/for-in-0.1.4.tgz"
                            }
                          }
                        },
                        "is-extendable": {
                          "version": "0.1.1",
                          "from": "is-extendable@>=0.1.1 <0.2.0",
                          "resolved": "https://registry.npmjs.org/is-extendable/-/is-extendable-0.1.1.tgz"
                        }
                      }
                    },
                    "parse-glob": {
                      "version": "3.0.4",
                      "from": "parse-glob@>=3.0.4 <4.0.0",
                      "resolved": "https://registry.npmjs.org/parse-glob/-/parse-glob-3.0.4.tgz",
                      "dependencies": {
                        "glob-base": {
                          "version": "0.3.0",
                          "from": "glob-base@>=0.3.0 <0.4.0",
                          "resolved": "https://registry.npmjs.org/glob-base/-/glob-base-0.3.0.tgz"
                        },
                        "is-dotfile": {
                          "version": "1.0.2",
                          "from": "is-dotfile@>=1.0.0 <2.0.0",
                          "resolved": "https://registry.npmjs.org/is-dotfile/-/is-dotfile-1.0.2.tgz"
                        }
                      }
                    },
                    "regex-cache": {
                      "version": "0.4.2",
                      "from": "regex-cache@>=0.4.2 <0.5.0",
                      "resolved": "https://registry.npmjs.org/regex-cache/-/regex-cache-0.4.2.tgz",
                      "dependencies": {
                        "is-equal-shallow": {
                          "version": "0.1.3",
                          "from": "is-equal-shallow@>=0.1.1 <0.2.0",
                          "resolved": "https://registry.npmjs.org/is-equal-shallow/-/is-equal-shallow-0.1.3.tgz"
                        },
                        "is-primitive": {
                          "version": "2.0.0",
                          "from": "is-primitive@>=2.0.0 <3.0.0",
                          "resolved": "https://registry.npmjs.org/is-primitive/-/is-primitive-2.0.0.tgz"
                        }
                      }
                    }
                  }
                }
              }
            },
            "async-each": {
              "version": "1.0.0",
              "from": "async-each@>=1.0.0 <2.0.0",
              "resolved": "https://registry.npmjs.org/async-each/-/async-each-1.0.0.tgz"
            },
            "glob-parent": {
              "version": "2.0.0",
              "from": "glob-parent@>=2.0.0 <3.0.0",
              "resolved": "https://registry.npmjs.org/glob-parent/-/glob-parent-2.0.0.tgz"
            },
            "inherits": {
              "version": "2.0.1",
              "from": "inherits@>=2.0.1 <3.0.0",
              "resolved": "https://registry.npmjs.org/inherits/-/inherits-2.0.1.tgz"
            },
            "is-binary-path": {
              "version": "1.0.1",
              "from": "is-binary-path@>=1.0.0 <2.0.0",
              "resolved": "https://registry.npmjs.org/is-binary-path/-/is-binary-path-1.0.1.tgz",
              "dependencies": {
                "binary-extensions": {
                  "version": "1.4.0",
                  "from": "binary-extensions@>=1.0.0 <2.0.0",
                  "resolved": "https://registry.npmjs.org/binary-extensions/-/binary-extensions-1.4.0.tgz"
                }
              }
            },
            "is-glob": {
              "version": "2.0.1",
              "from": "is-glob@>=2.0.0 <3.0.0",
              "resolved": "https://registry.npmjs.org/is-glob/-/is-glob-2.0.1.tgz",
              "dependencies": {
                "is-extglob": {
                  "version": "1.0.0",
                  "from": "is-extglob@>=1.0.0 <2.0.0",
                  "resolved": "https://registry.npmjs.org/is-extglob/-/is-extglob-1.0.0.tgz"
                }
              }
            },
            "path-is-absolute": {
              "version": "1.0.0",
              "from": "path-is-absolute@>=1.0.0 <2.0.0",
              "resolved": "https://registry.npmjs.org/path-is-absolute/-/path-is-absolute-1.0.0.tgz"
            },
            "readdirp": {
              "version": "2.0.0",
              "from": "readdirp@>=2.0.0 <3.0.0",
              "resolved": "https://registry.npmjs.org/readdirp/-/readdirp-2.0.0.tgz",
              "dependencies": {
                "graceful-fs": {
                  "version": "4.1.3",
                  "from": "graceful-fs@>=4.1.2 <5.0.0",
                  "resolved": "https://registry.npmjs.org/graceful-fs/-/graceful-fs-4.1.3.tgz"
                },
                "minimatch": {
                  "version": "2.0.10",
                  "from": "minimatch@>=2.0.10 <3.0.0",
                  "resolved": "https://registry.npmjs.org/minimatch/-/minimatch-2.0.10.tgz",
                  "dependencies": {
                    "brace-expansion": {
                      "version": "1.1.3",
                      "from": "brace-expansion@>=1.0.0 <2.0.0",
                      "resolved": "https://registry.npmjs.org/brace-expansion/-/brace-expansion-1.1.3.tgz",
                      "dependencies": {
                        "balanced-match": {
                          "version": "0.3.0",
                          "from": "balanced-match@>=0.3.0 <0.4.0",
                          "resolved": "https://registry.npmjs.org/balanced-match/-/balanced-match-0.3.0.tgz"
                        },
                        "concat-map": {
                          "version": "0.0.1",
                          "from": "concat-map@0.0.1",
                          "resolved": "https://registry.npmjs.org/concat-map/-/concat-map-0.0.1.tgz"
                        }
                      }
                    }
                  }
                },
                "readable-stream": {
                  "version": "2.0.6",
                  "from": "readable-stream@>=2.0.2 <3.0.0",
                  "resolved": "https://registry.npmjs.org/readable-stream/-/readable-stream-2.0.6.tgz",
                  "dependencies": {
                    "core-util-is": {
                      "version": "1.0.2",
                      "from": "core-util-is@>=1.0.0 <1.1.0",
                      "resolved": "https://registry.npmjs.org/core-util-is/-/core-util-is-1.0.2.tgz"
                    },
                    "isarray": {
                      "version": "1.0.0",
                      "from": "isarray@>=1.0.0 <1.1.0",
                      "resolved": "https://registry.npmjs.org/isarray/-/isarray-1.0.0.tgz"
                    },
                    "process-nextick-args": {
                      "version": "1.0.6",
                      "from": "process-nextick-args@>=1.0.6 <1.1.0",
                      "resolved": "https://registry.npmjs.org/process-nextick-args/-/process-nextick-args-1.0.6.tgz"
                    },
                    "string_decoder": {
                      "version": "0.10.31",
                      "from": "string_decoder@>=0.10.0 <0.11.0",
                      "resolved": "https://registry.npmjs.org/string_decoder/-/string_decoder-0.10.31.tgz"
                    },
                    "util-deprecate": {
                      "version": "1.0.2",
                      "from": "util-deprecate@>=1.0.1 <1.1.0",
                      "resolved": "https://registry.npmjs.org/util-deprecate/-/util-deprecate-1.0.2.tgz"
                    }
                  }
                }
              }
            }
          }
        },
        "debug": {
          "version": "2.2.0",
          "from": "debug@>=2.2.0 <3.0.0",
          "resolved": "https://registry.npmjs.org/debug/-/debug-2.2.0.tgz",
          "dependencies": {
            "ms": {
              "version": "0.7.1",
              "from": "ms@0.7.1",
              "resolved": "https://registry.npmjs.org/ms/-/ms-0.7.1.tgz"
            }
          }
        },
        "es6-promise": {
          "version": "3.1.2",
          "from": "es6-promise@>=3.0.2 <4.0.0",
          "resolved": "https://registry.npmjs.org/es6-promise/-/es6-promise-3.1.2.tgz"
        },
        "ignore-by-default": {
          "version": "1.0.1",
          "from": "ignore-by-default@>=1.0.0 <2.0.0",
          "resolved": "https://registry.npmjs.org/ignore-by-default/-/ignore-by-default-1.0.1.tgz"
        },
        "lodash.defaults": {
          "version": "3.1.2",
          "from": "lodash.defaults@>=3.1.2 <4.0.0",
          "resolved": "https://registry.npmjs.org/lodash.defaults/-/lodash.defaults-3.1.2.tgz",
          "dependencies": {
            "lodash.assign": {
              "version": "3.2.0",
              "from": "lodash.assign@>=3.0.0 <4.0.0",
              "resolved": "https://registry.npmjs.org/lodash.assign/-/lodash.assign-3.2.0.tgz",
              "dependencies": {
                "lodash._baseassign": {
                  "version": "3.2.0",
                  "from": "lodash._baseassign@>=3.0.0 <4.0.0",
                  "resolved": "https://registry.npmjs.org/lodash._baseassign/-/lodash._baseassign-3.2.0.tgz",
                  "dependencies": {
                    "lodash._basecopy": {
                      "version": "3.0.1",
                      "from": "lodash._basecopy@>=3.0.0 <4.0.0",
                      "resolved": "https://registry.npmjs.org/lodash._basecopy/-/lodash._basecopy-3.0.1.tgz"
                    }
                  }
                },
                "lodash._createassigner": {
                  "version": "3.1.1",
                  "from": "lodash._createassigner@>=3.0.0 <4.0.0",
                  "resolved": "https://registry.npmjs.org/lodash._createassigner/-/lodash._createassigner-3.1.1.tgz",
                  "dependencies": {
                    "lodash._bindcallback": {
                      "version": "3.0.1",
                      "from": "lodash._bindcallback@>=3.0.0 <4.0.0",
                      "resolved": "https://registry.npmjs.org/lodash._bindcallback/-/lodash._bindcallback-3.0.1.tgz"
                    },
                    "lodash._isiterateecall": {
                      "version": "3.0.9",
                      "from": "lodash._isiterateecall@>=3.0.0 <4.0.0",
                      "resolved": "https://registry.npmjs.org/lodash._isiterateecall/-/lodash._isiterateecall-3.0.9.tgz"
                    }
                  }
                },
                "lodash.keys": {
                  "version": "3.1.2",
                  "from": "lodash.keys@>=3.0.0 <4.0.0",
                  "resolved": "https://registry.npmjs.org/lodash.keys/-/lodash.keys-3.1.2.tgz",
                  "dependencies": {
                    "lodash._getnative": {
                      "version": "3.9.1",
                      "from": "lodash._getnative@>=3.0.0 <4.0.0",
                      "resolved": "https://registry.npmjs.org/lodash._getnative/-/lodash._getnative-3.9.1.tgz"
                    },
                    "lodash.isarguments": {
                      "version": "3.0.8",
                      "from": "lodash.isarguments@>=3.0.0 <4.0.0",
                      "resolved": "https://registry.npmjs.org/lodash.isarguments/-/lodash.isarguments-3.0.8.tgz"
                    },
                    "lodash.isarray": {
                      "version": "3.0.4",
                      "from": "lodash.isarray@>=3.0.0 <4.0.0",
                      "resolved": "https://registry.npmjs.org/lodash.isarray/-/lodash.isarray-3.0.4.tgz"
                    }
                  }
                }
              }
            },
            "lodash.restparam": {
              "version": "3.6.1",
              "from": "lodash.restparam@>=3.0.0 <4.0.0",
              "resolved": "https://registry.npmjs.org/lodash.restparam/-/lodash.restparam-3.6.1.tgz"
            }
          }
        },
        "minimatch": {
          "version": "3.0.0",
          "from": "minimatch@>=3.0.0 <4.0.0",
          "resolved": "https://registry.npmjs.org/minimatch/-/minimatch-3.0.0.tgz",
          "dependencies": {
            "brace-expansion": {
              "version": "1.1.3",
              "from": "brace-expansion@>=1.0.0 <2.0.0",
              "resolved": "https://registry.npmjs.org/brace-expansion/-/brace-expansion-1.1.3.tgz",
              "dependencies": {
                "balanced-match": {
                  "version": "0.3.0",
                  "from": "balanced-match@>=0.3.0 <0.4.0",
                  "resolved": "https://registry.npmjs.org/balanced-match/-/balanced-match-0.3.0.tgz"
                },
                "concat-map": {
                  "version": "0.0.1",
                  "from": "concat-map@0.0.1",
                  "resolved": "https://registry.npmjs.org/concat-map/-/concat-map-0.0.1.tgz"
                }
              }
            }
          }
        },
        "ps-tree": {
          "version": "1.0.1",
          "from": "ps-tree@>=1.0.1 <2.0.0",
          "resolved": "https://registry.npmjs.org/ps-tree/-/ps-tree-1.0.1.tgz",
          "dependencies": {
            "event-stream": {
              "version": "3.3.2",
              "from": "event-stream@>=3.3.0 <3.4.0",
              "resolved": "https://registry.npmjs.org/event-stream/-/event-stream-3.3.2.tgz",
              "dependencies": {
                "through": {
                  "version": "2.3.8",
                  "from": "through@>=2.3.1 <2.4.0",
                  "resolved": "https://registry.npmjs.org/through/-/through-2.3.8.tgz"
                },
                "duplexer": {
                  "version": "0.1.1",
                  "from": "duplexer@>=0.1.1 <0.2.0",
                  "resolved": "https://registry.npmjs.org/duplexer/-/duplexer-0.1.1.tgz"
                },
                "from": {
                  "version": "0.1.3",
                  "from": "from@>=0.0.0 <1.0.0",
                  "resolved": "https://registry.npmjs.org/from/-/from-0.1.3.tgz"
                },
                "map-stream": {
                  "version": "0.1.0",
                  "from": "map-stream@>=0.1.0 <0.2.0",
                  "resolved": "https://registry.npmjs.org/map-stream/-/map-stream-0.1.0.tgz"
                },
                "pause-stream": {
                  "version": "0.0.11",
                  "from": "pause-stream@0.0.11",
                  "resolved": "https://registry.npmjs.org/pause-stream/-/pause-stream-0.0.11.tgz"
                },
                "split": {
                  "version": "0.3.3",
                  "from": "split@>=0.3.0 <0.4.0",
                  "resolved": "https://registry.npmjs.org/split/-/split-0.3.3.tgz"
                },
                "stream-combiner": {
                  "version": "0.0.4",
                  "from": "stream-combiner@>=0.0.4 <0.1.0",
                  "resolved": "https://registry.npmjs.org/stream-combiner/-/stream-combiner-0.0.4.tgz"
                }
              }
            }
          }
        },
        "touch": {
          "version": "1.0.0",
          "from": "touch@1.0.0",
          "resolved": "https://registry.npmjs.org/touch/-/touch-1.0.0.tgz",
          "dependencies": {
            "nopt": {
              "version": "1.0.10",
              "from": "nopt@>=1.0.10 <1.1.0",
              "resolved": "https://registry.npmjs.org/nopt/-/nopt-1.0.10.tgz",
              "dependencies": {
                "abbrev": {
                  "version": "1.0.7",
                  "from": "abbrev@>=1.0.0 <2.0.0",
                  "resolved": "https://registry.npmjs.org/abbrev/-/abbrev-1.0.7.tgz"
                }
              }
            }
          }
        },
        "undefsafe": {
          "version": "0.0.3",
          "from": "undefsafe@0.0.3",
          "resolved": "https://registry.npmjs.org/undefsafe/-/undefsafe-0.0.3.tgz"
        },
        "update-notifier": {
          "version": "0.5.0",
          "from": "update-notifier@0.5.0",
          "resolved": "https://registry.npmjs.org/update-notifier/-/update-notifier-0.5.0.tgz",
          "dependencies": {
            "chalk": {
              "version": "1.1.1",
              "from": "chalk@>=1.0.0 <2.0.0",
              "resolved": "https://registry.npmjs.org/chalk/-/chalk-1.1.1.tgz",
              "dependencies": {
                "ansi-styles": {
                  "version": "2.2.0",
                  "from": "ansi-styles@>=2.1.0 <3.0.0",
                  "resolved": "https://registry.npmjs.org/ansi-styles/-/ansi-styles-2.2.0.tgz",
                  "dependencies": {
                    "color-convert": {
                      "version": "1.0.0",
                      "from": "color-convert@>=1.0.0 <2.0.0",
                      "resolved": "https://registry.npmjs.org/color-convert/-/color-convert-1.0.0.tgz"
                    }
                  }
                },
                "escape-string-regexp": {
                  "version": "1.0.5",
                  "from": "escape-string-regexp@>=1.0.2 <2.0.0",
                  "resolved": "https://registry.npmjs.org/escape-string-regexp/-/escape-string-regexp-1.0.5.tgz"
                },
                "has-ansi": {
                  "version": "2.0.0",
                  "from": "has-ansi@>=2.0.0 <3.0.0",
                  "resolved": "https://registry.npmjs.org/has-ansi/-/has-ansi-2.0.0.tgz",
                  "dependencies": {
                    "ansi-regex": {
                      "version": "2.0.0",
                      "from": "ansi-regex@>=2.0.0 <3.0.0",
                      "resolved": "https://registry.npmjs.org/ansi-regex/-/ansi-regex-2.0.0.tgz"
                    }
                  }
                },
                "strip-ansi": {
                  "version": "3.0.1",
                  "from": "strip-ansi@>=3.0.0 <4.0.0",
                  "resolved": "https://registry.npmjs.org/strip-ansi/-/strip-ansi-3.0.1.tgz",
                  "dependencies": {
                    "ansi-regex": {
                      "version": "2.0.0",
                      "from": "ansi-regex@>=2.0.0 <3.0.0",
                      "resolved": "https://registry.npmjs.org/ansi-regex/-/ansi-regex-2.0.0.tgz"
                    }
                  }
                },
                "supports-color": {
                  "version": "2.0.0",
                  "from": "supports-color@>=2.0.0 <3.0.0",
                  "resolved": "https://registry.npmjs.org/supports-color/-/supports-color-2.0.0.tgz"
                }
              }
            },
            "configstore": {
              "version": "1.4.0",
              "from": "configstore@>=1.0.0 <2.0.0",
              "resolved": "https://registry.npmjs.org/configstore/-/configstore-1.4.0.tgz",
              "dependencies": {
                "graceful-fs": {
                  "version": "4.1.3",
                  "from": "graceful-fs@>=4.1.2 <5.0.0",
                  "resolved": "https://registry.npmjs.org/graceful-fs/-/graceful-fs-4.1.3.tgz"
                },
                "mkdirp": {
                  "version": "0.5.1",
                  "from": "mkdirp@>=0.5.0 <0.6.0",
                  "resolved": "https://registry.npmjs.org/mkdirp/-/mkdirp-0.5.1.tgz",
                  "dependencies": {
                    "minimist": {
                      "version": "0.0.8",
                      "from": "minimist@0.0.8",
                      "resolved": "https://registry.npmjs.org/minimist/-/minimist-0.0.8.tgz"
                    }
                  }
                },
                "object-assign": {
                  "version": "4.0.1",
                  "from": "object-assign@>=4.0.1 <5.0.0",
                  "resolved": "https://registry.npmjs.org/object-assign/-/object-assign-4.0.1.tgz"
                },
                "os-tmpdir": {
                  "version": "1.0.1",
                  "from": "os-tmpdir@>=1.0.0 <2.0.0",
                  "resolved": "https://registry.npmjs.org/os-tmpdir/-/os-tmpdir-1.0.1.tgz"
                },
                "osenv": {
                  "version": "0.1.3",
                  "from": "osenv@>=0.1.0 <0.2.0",
                  "resolved": "https://registry.npmjs.org/osenv/-/osenv-0.1.3.tgz",
                  "dependencies": {
                    "os-homedir": {
                      "version": "1.0.1",
                      "from": "os-homedir@>=1.0.0 <2.0.0",
                      "resolved": "https://registry.npmjs.org/os-homedir/-/os-homedir-1.0.1.tgz"
                    }
                  }
                },
                "uuid": {
                  "version": "2.0.1",
                  "from": "uuid@>=2.0.1 <3.0.0",
                  "resolved": "https://registry.npmjs.org/uuid/-/uuid-2.0.1.tgz"
                },
                "write-file-atomic": {
                  "version": "1.1.4",
                  "from": "write-file-atomic@>=1.1.2 <2.0.0",
                  "resolved": "https://registry.npmjs.org/write-file-atomic/-/write-file-atomic-1.1.4.tgz",
                  "dependencies": {
                    "imurmurhash": {
                      "version": "0.1.4",
                      "from": "imurmurhash@>=0.1.4 <0.2.0",
                      "resolved": "https://registry.npmjs.org/imurmurhash/-/imurmurhash-0.1.4.tgz"
                    },
                    "slide": {
                      "version": "1.1.6",
                      "from": "slide@>=1.1.5 <2.0.0",
                      "resolved": "https://registry.npmjs.org/slide/-/slide-1.1.6.tgz"
                    }
                  }
                },
                "xdg-basedir": {
                  "version": "2.0.0",
                  "from": "xdg-basedir@>=2.0.0 <3.0.0",
                  "resolved": "https://registry.npmjs.org/xdg-basedir/-/xdg-basedir-2.0.0.tgz",
                  "dependencies": {
                    "os-homedir": {
                      "version": "1.0.1",
                      "from": "os-homedir@>=1.0.0 <2.0.0",
                      "resolved": "https://registry.npmjs.org/os-homedir/-/os-homedir-1.0.1.tgz"
                    }
                  }
                }
              }
            },
            "is-npm": {
              "version": "1.0.0",
              "from": "is-npm@>=1.0.0 <2.0.0",
              "resolved": "https://registry.npmjs.org/is-npm/-/is-npm-1.0.0.tgz"
            },
            "latest-version": {
              "version": "1.0.1",
              "from": "latest-version@>=1.0.0 <2.0.0",
              "resolved": "https://registry.npmjs.org/latest-version/-/latest-version-1.0.1.tgz",
              "dependencies": {
                "package-json": {
                  "version": "1.2.0",
                  "from": "package-json@>=1.0.0 <2.0.0",
                  "resolved": "https://registry.npmjs.org/package-json/-/package-json-1.2.0.tgz",
                  "dependencies": {
                    "got": {
                      "version": "3.3.1",
                      "from": "got@>=3.2.0 <4.0.0",
                      "resolved": "https://registry.npmjs.org/got/-/got-3.3.1.tgz",
                      "dependencies": {
                        "duplexify": {
                          "version": "3.4.3",
                          "from": "duplexify@>=3.2.0 <4.0.0",
                          "resolved": "https://registry.npmjs.org/duplexify/-/duplexify-3.4.3.tgz",
                          "dependencies": {
                            "end-of-stream": {
                              "version": "1.0.0",
                              "from": "end-of-stream@1.0.0",
                              "resolved": "https://registry.npmjs.org/end-of-stream/-/end-of-stream-1.0.0.tgz",
                              "dependencies": {
                                "once": {
                                  "version": "1.3.3",
                                  "from": "once@>=1.3.0 <1.4.0",
                                  "resolved": "https://registry.npmjs.org/once/-/once-1.3.3.tgz",
                                  "dependencies": {
                                    "wrappy": {
                                      "version": "1.0.1",
                                      "from": "wrappy@>=1.0.0 <2.0.0",
                                      "resolved": "https://registry.npmjs.org/wrappy/-/wrappy-1.0.1.tgz"
                                    }
                                  }
                                }
                              }
                            },
                            "inherits": {
                              "version": "2.0.1",
                              "from": "inherits@>=2.0.1 <3.0.0",
                              "resolved": "https://registry.npmjs.org/inherits/-/inherits-2.0.1.tgz"
                            },
                            "readable-stream": {
                              "version": "2.0.6",
                              "from": "readable-stream@>=2.0.0 <3.0.0",
                              "resolved": "https://registry.npmjs.org/readable-stream/-/readable-stream-2.0.6.tgz",
                              "dependencies": {
                                "core-util-is": {
                                  "version": "1.0.2",
                                  "from": "core-util-is@>=1.0.0 <1.1.0",
                                  "resolved": "https://registry.npmjs.org/core-util-is/-/core-util-is-1.0.2.tgz"
                                },
                                "isarray": {
                                  "version": "1.0.0",
                                  "from": "isarray@>=1.0.0 <1.1.0",
                                  "resolved": "https://registry.npmjs.org/isarray/-/isarray-1.0.0.tgz"
                                },
                                "process-nextick-args": {
                                  "version": "1.0.6",
                                  "from": "process-nextick-args@>=1.0.6 <1.1.0",
                                  "resolved": "https://registry.npmjs.org/process-nextick-args/-/process-nextick-args-1.0.6.tgz"
                                },
                                "string_decoder": {
                                  "version": "0.10.31",
                                  "from": "string_decoder@>=0.10.0 <0.11.0",
                                  "resolved": "https://registry.npmjs.org/string_decoder/-/string_decoder-0.10.31.tgz"
                                },
                                "util-deprecate": {
                                  "version": "1.0.2",
                                  "from": "util-deprecate@>=1.0.1 <1.1.0",
                                  "resolved": "https://registry.npmjs.org/util-deprecate/-/util-deprecate-1.0.2.tgz"
                                }
                              }
                            }
                          }
                        },
                        "infinity-agent": {
                          "version": "2.0.3",
                          "from": "infinity-agent@>=2.0.0 <3.0.0",
                          "resolved": "https://registry.npmjs.org/infinity-agent/-/infinity-agent-2.0.3.tgz"
                        },
                        "is-redirect": {
                          "version": "1.0.0",
                          "from": "is-redirect@>=1.0.0 <2.0.0",
                          "resolved": "https://registry.npmjs.org/is-redirect/-/is-redirect-1.0.0.tgz"
                        },
                        "is-stream": {
                          "version": "1.0.1",
                          "from": "is-stream@>=1.0.0 <2.0.0",
                          "resolved": "https://registry.npmjs.org/is-stream/-/is-stream-1.0.1.tgz"
                        },
                        "lowercase-keys": {
                          "version": "1.0.0",
                          "from": "lowercase-keys@>=1.0.0 <2.0.0",
                          "resolved": "https://registry.npmjs.org/lowercase-keys/-/lowercase-keys-1.0.0.tgz"
                        },
                        "nested-error-stacks": {
                          "version": "1.0.2",
                          "from": "nested-error-stacks@>=1.0.0 <2.0.0",
                          "resolved": "https://registry.npmjs.org/nested-error-stacks/-/nested-error-stacks-1.0.2.tgz",
                          "dependencies": {
                            "inherits": {
                              "version": "2.0.1",
                              "from": "inherits@>=2.0.1 <2.1.0",
                              "resolved": "https://registry.npmjs.org/inherits/-/inherits-2.0.1.tgz"
                            }
                          }
                        },
                        "object-assign": {
                          "version": "3.0.0",
                          "from": "object-assign@>=3.0.0 <4.0.0",
                          "resolved": "https://registry.npmjs.org/object-assign/-/object-assign-3.0.0.tgz"
                        },
                        "prepend-http": {
                          "version": "1.0.3",
                          "from": "prepend-http@>=1.0.0 <2.0.0",
                          "resolved": "https://registry.npmjs.org/prepend-http/-/prepend-http-1.0.3.tgz"
                        },
                        "read-all-stream": {
                          "version": "3.1.0",
                          "from": "read-all-stream@>=3.0.0 <4.0.0",
                          "resolved": "https://registry.npmjs.org/read-all-stream/-/read-all-stream-3.1.0.tgz",
                          "dependencies": {
                            "pinkie-promise": {
                              "version": "2.0.0",
                              "from": "pinkie-promise@>=2.0.0 <3.0.0",
                              "resolved": "https://registry.npmjs.org/pinkie-promise/-/pinkie-promise-2.0.0.tgz",
                              "dependencies": {
                                "pinkie": {
                                  "version": "2.0.4",
                                  "from": "pinkie@>=2.0.0 <3.0.0",
                                  "resolved": "https://registry.npmjs.org/pinkie/-/pinkie-2.0.4.tgz"
                                }
                              }
                            },
                            "readable-stream": {
                              "version": "2.0.6",
                              "from": "readable-stream@>=2.0.0 <3.0.0",
                              "resolved": "https://registry.npmjs.org/readable-stream/-/readable-stream-2.0.6.tgz",
                              "dependencies": {
                                "core-util-is": {
                                  "version": "1.0.2",
                                  "from": "core-util-is@>=1.0.0 <1.1.0",
                                  "resolved": "https://registry.npmjs.org/core-util-is/-/core-util-is-1.0.2.tgz"
                                },
                                "inherits": {
                                  "version": "2.0.1",
                                  "from": "inherits@>=2.0.1 <2.1.0",
                                  "resolved": "https://registry.npmjs.org/inherits/-/inherits-2.0.1.tgz"
                                },
                                "isarray": {
                                  "version": "1.0.0",
                                  "from": "isarray@>=1.0.0 <1.1.0",
                                  "resolved": "https://registry.npmjs.org/isarray/-/isarray-1.0.0.tgz"
                                },
                                "process-nextick-args": {
                                  "version": "1.0.6",
                                  "from": "process-nextick-args@>=1.0.6 <1.1.0",
                                  "resolved": "https://registry.npmjs.org/process-nextick-args/-/process-nextick-args-1.0.6.tgz"
                                },
                                "string_decoder": {
                                  "version": "0.10.31",
                                  "from": "string_decoder@>=0.10.0 <0.11.0",
                                  "resolved": "https://registry.npmjs.org/string_decoder/-/string_decoder-0.10.31.tgz"
                                },
                                "util-deprecate": {
                                  "version": "1.0.2",
                                  "from": "util-deprecate@>=1.0.1 <1.1.0",
                                  "resolved": "https://registry.npmjs.org/util-deprecate/-/util-deprecate-1.0.2.tgz"
                                }
                              }
                            }
                          }
                        },
                        "timed-out": {
                          "version": "2.0.0",
                          "from": "timed-out@>=2.0.0 <3.0.0",
                          "resolved": "https://registry.npmjs.org/timed-out/-/timed-out-2.0.0.tgz"
                        }
                      }
                    },
                    "registry-url": {
                      "version": "3.0.3",
                      "from": "registry-url@>=3.0.0 <4.0.0",
                      "resolved": "https://registry.npmjs.org/registry-url/-/registry-url-3.0.3.tgz",
                      "dependencies": {
                        "rc": {
                          "version": "1.1.6",
                          "from": "rc@>=1.0.1 <2.0.0",
                          "resolved": "https://registry.npmjs.org/rc/-/rc-1.1.6.tgz",
                          "dependencies": {
                            "deep-extend": {
                              "version": "0.4.1",
                              "from": "deep-extend@>=0.4.0 <0.5.0",
                              "resolved": "https://registry.npmjs.org/deep-extend/-/deep-extend-0.4.1.tgz"
                            },
                            "ini": {
                              "version": "1.3.4",
                              "from": "ini@>=1.3.0 <1.4.0",
                              "resolved": "https://registry.npmjs.org/ini/-/ini-1.3.4.tgz"
                            },
                            "minimist": {
                              "version": "1.2.0",
                              "from": "minimist@>=1.2.0 <2.0.0",
                              "resolved": "https://registry.npmjs.org/minimist/-/minimist-1.2.0.tgz"
                            },
                            "strip-json-comments": {
                              "version": "1.0.4",
                              "from": "strip-json-comments@>=1.0.4 <1.1.0",
                              "resolved": "https://registry.npmjs.org/strip-json-comments/-/strip-json-comments-1.0.4.tgz"
                            }
                          }
                        }
                      }
                    }
                  }
                }
              }
            },
            "repeating": {
              "version": "1.1.3",
              "from": "repeating@>=1.1.2 <2.0.0",
              "resolved": "https://registry.npmjs.org/repeating/-/repeating-1.1.3.tgz",
              "dependencies": {
                "is-finite": {
                  "version": "1.0.1",
                  "from": "is-finite@>=1.0.0 <2.0.0",
                  "resolved": "https://registry.npmjs.org/is-finite/-/is-finite-1.0.1.tgz",
                  "dependencies": {
                    "number-is-nan": {
                      "version": "1.0.0",
                      "from": "number-is-nan@>=1.0.0 <2.0.0",
                      "resolved": "https://registry.npmjs.org/number-is-nan/-/number-is-nan-1.0.0.tgz"
                    }
                  }
                }
              }
            },
            "semver-diff": {
              "version": "2.1.0",
              "from": "semver-diff@>=2.0.0 <3.0.0",
              "resolved": "https://registry.npmjs.org/semver-diff/-/semver-diff-2.1.0.tgz",
              "dependencies": {
                "semver": {
                  "version": "5.1.0",
                  "from": "semver@>=5.0.3 <6.0.0",
                  "resolved": "https://registry.npmjs.org/semver/-/semver-5.1.0.tgz"
                }
              }
            },
            "string-length": {
              "version": "1.0.1",
              "from": "string-length@>=1.0.0 <2.0.0",
              "resolved": "https://registry.npmjs.org/string-length/-/string-length-1.0.1.tgz",
              "dependencies": {
                "strip-ansi": {
                  "version": "3.0.1",
                  "from": "strip-ansi@>=3.0.0 <4.0.0",
                  "resolved": "https://registry.npmjs.org/strip-ansi/-/strip-ansi-3.0.1.tgz",
                  "dependencies": {
                    "ansi-regex": {
                      "version": "2.0.0",
                      "from": "ansi-regex@>=2.0.0 <3.0.0",
                      "resolved": "https://registry.npmjs.org/ansi-regex/-/ansi-regex-2.0.0.tgz"
                    }
                  }
                }
              }
            }
          }
        }
      }
    }
  }
}
